<svg
    xmlns="http://www.w3.org/2000/svg"
    viewBox="0 0 38 38"
    id="vector">
    <g
        id="group"
        transform="translate(9 9)">
        <path
            id="path"
            d="M 4.678 2.36 C 4.678 3.663 3.63 4.72 2.339 4.72 C 1.047 4.72 0 3.663 0 2.36 C 0 1.057 1.047 0 2.339 0 C 3.63 0 4.678 1.057 4.678 2.36 M 0.38 19.184 L 4.335 19.184 L 4.335 6.395 L 0.38 6.395 L 0.38 19.184 M 10.658 6.395 L 6.864 6.395 L 6.864 19.184 L 10.658 19.184 L 10.658 12.47 C 10.658 10.672 11.485 9.601 13.068 9.601 C 14.522 9.601 15.221 10.629 15.221 12.47 L 15.221 19.184 L 19.157 19.184 L 19.157 11.086 C 19.157 7.66 17.218 6.004 14.508 6.004 C 11.798 6.004 10.658 8.117 10.658 8.117 L 10.658 6.395"
            fill="#0077b5"/>
    </g>
</svg>
