<svg
    xmlns="http://www.w3.org/2000/svg"
    viewBox="0 0 38 38"
    id="vector">
    <g
        id="group"
        transform="translate(10.21466 4.179814) rotate(5 0 0)">
        <path
            id="path"
            d="M 12.38 0.939 L 10.212 6.07 C 9.456 7.611 11.424 8.044 12.507 8.675 C 12.611 8.735 12.678 8.775 12.693 8.784 C 15.012 10.135 9.568 19.599 7.199 18.344 L 7.012 18.237 C 5.916 17.606 4.792 15.748 3.049 18.112 L 0.293 21.877 C -0.875 23.864 1.755 24.853 2.851 25.483 C 2.975 25.553 3.053 25.599 3.06 25.603 C 4.597 26.44 8.529 28.87 15.496 16.756 C 22.524 4.538 18.449 2.525 16.869 1.554 C 16.849 1.542 16.78 1.501 16.678 1.442 C 15.578 0.803 13.236 -1.147 12.38 0.939 Z"
            fill="none"
            stroke="#e8008c"
            stroke-width="1.5"/>
        <path
            id="path_1"
            d="M 6.829 17.854 L 2.948 24.984"
            fill="none"
            stroke="#e8008c"
            stroke-width="1"/>
        <path
            id="path_2"
            d="M 12.106 8.899 L 16.6 1.773"
            fill="none"
            stroke="#e8008c"
            stroke-width="1"/>
    </g>
</svg>
