<svg
    xmlns="http://www.w3.org/2000/svg"
    viewBox="0 0 128 128"
    id="vector">
    <path
        id="path"
        d="M 64 0 C 47.033 0 30.743 6.747 18.745 18.745 C 6.747 30.743 0 47.033 0 64 C 0 80.967 6.747 97.257 18.745 109.255 C 30.743 121.253 47.033 128 64 128 C 80.967 128 97.257 121.253 109.255 109.255 C 121.253 97.257 128 80.967 128 64 C 128 47.033 121.253 30.743 109.255 18.745 C 97.257 6.747 80.967 0 64 0 Z"
        fill="#e5008c"
        stroke-width="1"/>
    <path
        id="path_1"
        d="M 50.4 75 C 46 75 42.7 78.5 42.7 82.7 C 42.7 86.9 46.2 90.4 50.4 90.4 C 54.6 90.4 58.1 86.9 58.1 82.7 C 58.3 78.5 54.8 75 50.4 75 Z M 50.4 86.8 C 48.2 86.8 46.5 85.1 46.5 82.9 C 46.5 80.7 48.2 79 50.4 79 C 52.6 79 54.3 80.7 54.3 82.9 C 54.4 85 52.6 86.8 50.4 86.8 Z M 109 69.3 L 109 77.6 C 109 79.6 107.3 81.4 105.2 81.4 L 101.1 81.4 C 100.4 76.5 96.2 72.7 90.9 72.7 C 85.8 72.7 81.5 76.5 80.7 81.4 L 60.5 81.4 C 59.8 76.5 55.6 72.7 50.3 72.7 C 45 72.7 40.9 76.5 40.1 81.4 L 35 81.4 C 33 81.4 31.2 79.7 31.2 77.6 L 31.2 69.3 L 109 69.3 Z M 91.1 75 C 86.7 75 83.4 78.5 83.4 82.7 C 83.4 86.9 86.9 90.4 91.1 90.4 C 95.3 90.4 98.8 86.9 98.8 82.7 C 98.8 78.5 95.3 75 91.1 75 Z M 91.1 86.8 C 88.9 86.8 87.2 85.1 87.2 82.9 C 87.2 80.7 88.9 79 91.1 79 C 93.3 79 95 80.7 95 82.9 C 94.9 85 93.2 86.8 91.1 86.8 Z M 107.5 60.9 L 92.9 46.4 C 92 45.5 90.7 44.9 89.4 44.9 L 82 44.9 L 82 42.1 C 82 40.1 80.3 38.3 78.2 38.3 L 35.3 38.3 C 33.3 38.3 31.5 40 31.5 42.1 L 31.5 42.7 L 16.2 44.4 L 43.2 48 L 16 50.7 L 43.2 54.6 L 16 57 L 31.5 59.9 L 31.5 67.3 L 109 67.3 L 109 64.5 C 109 63.2 108.4 61.9 107.5 60.9 Z M 101.2 61.5 L 86.9 61.5 C 86.6 61.5 86.3 61.2 86.3 60.9 L 86.3 49.9 C 86.3 49.6 86.6 49.3 86.9 49.3 L 89.7 49.3 C 89.8 49.3 90 49.3 90.1 49.4 L 101.6 60.4 C 101.9 60.8 101.6 61.5 101.2 61.5 Z"
        fill="#ffffff"
        stroke-width="1"/>
</svg>
