<svg
    xmlns="http://www.w3.org/2000/svg"
    viewBox="0 0 128 128"
    id="vector">
    <path
        id="path"
        d="M 64 0 C 47.033 0 30.743 6.747 18.745 18.745 C 6.747 30.743 0 47.033 0 64 C 0 80.967 6.747 97.257 18.745 109.255 C 30.743 121.253 47.033 128 64 128 C 80.967 128 97.257 121.253 109.255 109.255 C 121.253 97.257 128 80.967 128 64 C 128 47.033 121.253 30.743 109.255 18.745 C 97.257 6.747 80.967 0 64 0 Z"
        fill="#e5008c"
        stroke-width="1"/>
    <g id="group">
        <path
            id="path_1"
            d="M 26.4 92.2 L 26.4 63.2 C 30.2 64.2 34 64.4 37.9 65 C 41.2 65.5 41.2 65.5 42 62.3 C 42 62.2 42.1 62.1 42.1 61.9 C 42.5 61.2 42.1 60.9 41.4 60.8 C 36.4 60.2 31.4 59.5 26.4 58.8 L 26.4 47.2 C 27.7 43.2 30.7 41.8 34.8 41.8 C 55.1 41.9 75.3 41.9 95.6 41.8 C 99.7 41.8 102.6 43.1 104 47.2 L 104 58.8 C 99 59.4 94 60.1 89 60.8 C 88.3 60.9 87.9 61 88.3 61.9 C 88.5 62.6 88.8 63.4 88.9 64.1 C 89 64.8 89.4 65.2 90.2 65.1 C 94.8 64.6 99.5 64.1 104 63.1 L 104 92.1 C 102.5 96 99.6 97.3 95.5 97.2 C 75.2 97.1 55 97.1 34.7 97.2 C 30.7 97.4 27.9 96 26.4 92.2 Z M 85.1 69.6 C 85.2 58.9 76.2 49.8 65.3 49.7 C 54.6 49.6 45.4 58.5 45.3 69.2 C 45.1 80.5 53.9 89.5 65 89.6 C 76.2 89.6 85 80.9 85.1 69.6 Z M 65.3 23.9 C 72.1 24.3 77.4 27.3 80.7 33.4 C 81.9 35.6 81.4 37.5 79.7 38.5 C 77.9 39.5 76 38.7 74.8 36.5 C 72.6 32.6 69.4 30.5 65.2 30.5 C 61 30.5 57.8 32.6 55.7 36.4 C 54.5 38.6 52.8 39.3 50.9 38.4 C 49 37.5 48.6 35.5 49.8 33.2 C 53.1 27.3 58.4 24.2 65.3 23.9 Z"
            fill="#ffffff"
            stroke-width="1"/>
        <path
            id="path_2"
            d="M 65.4 86.3 C 67 83.1 68.5 80.1 69.9 77 C 70.8 77.9 71 79 71.2 79.9 C 71.6 81.4 72.2 81.1 73.2 80.4 C 80.3 75.3 80.5 64.5 73.6 59.2 C 72.6 58.3 70.8 57.7 72 56 C 73.2 54.3 74.6 55.8 75.7 56.5 C 81.3 60.9 83.4 68.5 81.1 75.2 C 78.7 81.7 72.3 86.5 65.4 86.3 Z M 67.4 62.3 L 67.4 69.6 C 67.4 71.7 66.7 72.4 64.6 72.4 L 55.1 72.4 C 53.5 72.4 52.4 72 52.3 70.2 C 52.2 68.7 53.3 68 55.2 68 C 57.3 68 59.3 67.9 61.4 68 C 62.6 68 63 67.6 63 66.4 C 62.9 62.5 63 58.5 63 54.6 C 63 53.4 63.4 52.3 64.7 51.9 C 66.2 51.4 67.5 52.5 67.5 54.5 C 67.5 57.2 67.4 59.7 67.4 62.3 Z"
            fill="#ffffff"
            stroke-width="1"/>
    </g>
</svg>
