<svg
    xmlns="http://www.w3.org/2000/svg"
    viewBox="0 0 128 128"
    id="vector">
    <path
        id="path"
        d="M 64 0 C 99.346 0 128 28.654 128 64 C 128 99.346 99.346 128 64 128 C 28.654 128 0 99.346 0 64 C 0 28.654 28.654 0 64 0 Z"
        fill="#e73458"/>
    <path
        id="path_1"
        d="M 56.374 67.404 C 54.877 68.902 52.562 68.902 51.064 67.404 C 50.519 66.86 49.702 66.86 49.157 67.404 C 48.613 67.949 48.613 68.766 49.157 69.311 C 50.383 70.536 52.153 71.217 53.787 71.217 C 55.421 71.217 57.055 70.536 58.417 69.311 C 58.962 68.766 58.962 67.949 58.417 67.404 C 57.736 66.86 56.919 66.86 56.374 67.404 Z"
        fill="#ffffff"/>
    <path
        id="path_2"
        d="M 77.481 67.404 C 75.983 68.902 73.668 68.902 72.17 67.404 C 71.626 66.86 70.809 66.86 70.264 67.404 C 69.719 67.949 69.719 68.766 70.264 69.311 C 71.489 70.536 73.26 71.217 74.894 71.217 C 76.528 71.217 78.162 70.536 79.523 69.311 C 80.068 68.766 80.068 67.949 79.523 67.404 C 78.979 66.86 78.026 66.86 77.481 67.404 Z"
        fill="#ffffff"/>
    <path
        id="path_3"
        d="M 71.353 90.145 C 69.447 91.234 67.404 91.915 65.226 92.596 C 53.106 89.464 44.664 78.57 44.664 65.907 L 44.664 64.136 L 45.209 64 C 52.834 62.23 60.187 59.234 66.723 54.877 C 71.217 60.732 78.162 64.272 85.651 64.272 L 85.787 64.272 L 85.787 65.907 C 85.787 70.4 84.698 74.894 82.519 78.979 C 82.111 79.66 82.383 80.477 83.064 80.749 C 83.2 80.885 83.472 80.885 83.745 80.885 C 84.153 80.885 84.698 80.613 84.97 80.204 C 85.923 78.298 86.74 76.392 87.285 74.349 L 87.966 74.349 C 89.464 74.349 90.962 73.804 92.051 72.715 C 93.14 71.626 93.685 70.128 93.685 68.63 L 93.685 65.226 C 93.685 62.23 91.37 59.779 88.511 59.507 L 88.511 57.464 C 88.511 49.702 84.698 42.757 78.706 38.536 C 77.753 32 72.034 26.962 65.226 26.962 C 58.417 26.962 52.834 31.864 51.745 38.536 C 45.889 42.757 41.94 49.702 41.94 57.464 L 41.94 59.507 C 39.081 59.779 36.766 62.23 36.766 65.226 L 36.766 68.63 C 36.766 70.128 37.311 71.626 38.4 72.715 C 39.489 73.804 40.987 74.349 42.485 74.349 L 43.166 74.349 C 46.162 84.426 54.196 92.596 64.817 95.183 C 64.953 95.183 65.089 95.183 65.089 95.183 C 65.226 95.183 65.362 95.183 65.362 95.183 C 67.813 94.638 70.128 93.685 72.306 92.46 C 72.987 92.051 73.26 91.234 72.851 90.689 C 72.851 90.009 72.034 89.872 71.353 90.145 Z M 90.962 65.226 L 90.962 68.63 C 90.962 69.447 90.689 70.264 90.009 70.809 C 89.464 71.353 88.647 71.762 87.83 71.762 C 88.238 69.855 88.374 67.949 88.374 66.043 L 88.374 62.23 C 89.872 62.502 90.962 63.728 90.962 65.226 Z M 65.226 29.549 C 69.855 29.549 73.804 32.409 75.438 36.494 C 72.306 34.996 68.902 34.179 65.226 34.179 C 61.549 34.179 58.145 34.996 55.013 36.494 C 56.647 32.409 60.732 29.549 65.226 29.549 Z M 65.226 36.766 C 76.528 36.766 85.787 46.026 85.787 57.328 L 85.787 61.004 L 85.787 61.549 L 85.651 61.549 C 79.115 61.549 72.987 58.553 68.902 53.379 C 69.855 52.698 70.672 52.017 71.626 51.336 C 72.17 50.928 72.306 49.974 71.898 49.43 C 71.489 48.885 70.536 48.749 69.991 49.158 C 62.638 55.013 53.787 59.234 44.664 61.277 L 44.664 60.868 L 44.664 57.192 C 44.664 46.026 53.923 36.766 65.226 36.766 Z M 42.621 71.762 C 41.804 71.762 40.987 71.489 40.443 70.809 C 39.898 70.264 39.489 69.447 39.489 68.63 L 39.489 65.226 C 39.489 63.728 40.579 62.502 42.077 62.23 L 42.077 66.043 C 42.077 67.949 42.213 69.855 42.621 71.762 Z"
        fill="#ffffff"/>
    <path
        id="path_4"
        d="M 73.804 49.021 C 74.077 49.021 74.485 48.885 74.757 48.613 C 75.302 48.068 75.438 47.251 74.894 46.706 C 74.349 46.162 73.532 46.026 72.987 46.57 C 72.443 47.115 72.306 47.932 72.851 48.477 C 73.123 48.885 73.532 49.021 73.804 49.021 Z"
        fill="#ffffff"/>
    <path
        id="path_5"
        d="M 81.566 83.881 L 78.57 76.119 C 78.162 74.894 76.936 74.213 75.574 74.485 C 70.4 75.438 66.179 79.66 65.226 84.834 C 64.953 86.06 65.634 87.285 66.86 87.694 L 74.485 90.826 L 80.613 96.953 C 80.885 97.226 81.294 97.362 81.566 97.362 C 81.838 97.362 82.247 97.226 82.519 96.953 C 83.064 96.409 83.064 95.591 82.519 95.047 L 77.209 89.736 L 80.34 86.604 L 87.285 93.549 C 87.83 94.094 88.647 94.094 89.191 93.549 C 89.736 93.004 89.736 92.187 89.191 91.643 L 81.566 83.881 Z M 75.983 77.209 L 78.706 84.289 L 74.894 88.102 L 68.085 85.243 C 68.766 81.157 72.034 78.026 75.983 77.209 Z"
        fill="#ffffff"/>
    <path
        id="path_6"
        d="M 91.779 94.638 C 91.37 94.638 91.098 94.774 90.825 95.047 C 90.553 95.319 90.417 95.728 90.417 96 C 90.417 96.409 90.553 96.681 90.825 96.953 C 91.098 97.226 91.506 97.362 91.779 97.362 C 92.187 97.362 92.459 97.226 92.732 96.953 C 93.004 96.681 93.14 96.272 93.14 96 C 93.14 95.591 93.004 95.319 92.732 95.047 C 92.596 94.774 92.187 94.638 91.779 94.638 Z"
        fill="#ffffff"/>
    <path
        id="path_7"
        d="M 64 0 C 47.033 0 30.743 6.747 18.745 18.745 C 6.747 30.743 0 47.033 0 64 C 0 80.967 6.747 97.257 18.745 109.255 C 30.743 121.253 47.033 128 64 128 C 80.967 128 97.257 121.253 109.255 109.255 C 121.253 97.257 128 80.967 128 64 C 128 47.033 121.253 30.743 109.255 18.745 C 97.257 6.747 80.967 0 64 0 Z"
        fill="#e73458"
        stroke-width="1"/>
    <g id="group">
        <path
            id="path_1_1"
            d="M 63.6 43.2 C 68.9 43.2 73.2 38.9 73.2 33.6 C 73.2 28.3 68.9 24 63.6 24 C 58.3 24 54 28.2 54 33.5 C 54 38.9 58.3 43.2 63.6 43.2 Z M 65.6 46.3 C 65.3 46 65.1 45.9 64.7 45.9 L 62.3 45.9 C 62 45.9 61.7 46 61.4 46.3 C 61 46.7 61 47.2 61.3 47.6 L 62.6 49.5 L 62 54.4 L 63.1 57.4 C 63.2 57.7 63.6 57.7 63.7 57.4 L 64.8 54.4 L 64.2 49.5 L 65.5 47.6 C 66 47.2 65.9 46.7 65.6 46.3 Z"
            fill="#ffffff"
            stroke-width="1"/>
        <path
            id="path_2_1"
            d="M 48.8 68.6 L 78.4 68.6 C 79.2 68.6 79.8 68 79.8 67.2 L 79.8 54.8 C 79.8 51.3 77.5 48 74 46.8 L 71.3 46 C 70.8 45.9 70.3 46.1 70.2 46.6 L 63.7 64.3 L 57.2 46.6 C 57.1 46.2 56.7 46 56.3 46 L 56 46 L 53.3 46.9 C 49.8 48 47.5 51.2 47.5 54.9 L 47.5 67.3 C 47.4 68 48 68.6 48.8 68.6 Z M 32.7 48.1 C 38 48.1 42.3 43.8 42.3 38.5 C 42.3 33.2 38 28.9 32.7 28.9 C 27.4 28.9 23.1 33.2 23.1 38.5 C 23.1 43.8 27.4 48.1 32.7 48.1 Z"
            fill="#ffffff"
            stroke-width="1"/>
        <path
            id="path_3_1"
            d="M 49.2 74.6 L 41.5 74.6 L 41.5 59.4 C 41.5 54.6 37.6 50.7 32.8 50.7 C 28 50.7 24 54.6 24 59.4 L 24 79.9 C 24 84.6 27.8 88.3 32.4 88.3 L 42.4 88.3 L 42.4 102 C 42.4 103.3 43.4 104.4 44.8 104.4 L 54 104.4 C 55.3 104.4 56.4 103.4 56.4 102 L 56.4 81.7 C 56.3 77.7 53.1 74.6 49.2 74.6 Z M 94.4 48.1 C 99.7 48.1 104 43.8 104 38.5 C 104 33.2 99.7 28.9 94.4 28.9 C 89.1 28.9 84.8 33.2 84.8 38.5 C 84.8 43.8 89.1 48.1 94.4 48.1 Z M 94.4 50.8 C 89.6 50.8 85.7 54.7 85.7 59.5 L 85.7 74.7 L 78 74.7 C 74.1 74.7 70.9 77.9 70.9 81.8 L 70.9 102.2 C 70.9 103.5 71.9 104.6 73.3 104.6 L 82.5 104.6 C 83.8 104.6 84.9 103.6 84.9 102.2 L 84.9 88.4 L 94.9 88.4 C 99.6 88.4 103.3 84.6 103.3 80 L 103.3 59.5 C 103.1 54.7 99.2 50.8 94.4 50.8 Z"
            fill="#ffffff"
            stroke-width="1"/>
    </g>
    <path
        id="path_8"
        d="M 64 0 C 47.033 0 30.743 6.747 18.745 18.745 C 6.747 30.743 0 47.033 0 64 C 0 80.967 6.747 97.257 18.745 109.255 C 30.743 121.253 47.033 128 64 128 C 80.967 128 97.257 121.253 109.255 109.255 C 121.253 97.257 128 80.967 128 64 C 128 47.033 121.253 30.743 109.255 18.745 C 97.257 6.747 80.967 0 64 0 Z"
        fill="#e73458"
        stroke-width="1"/>
    <g id="group_1">
        <path
            id="path_1_2"
            d="M 89.4 73.3 C 90.3 75.6 90.7 77.8 91.3 79.8 C 91.4 80.4 91.2 80.8 90.8 81.2 C 85.2 88.2 77.8 92.6 68.9 93.8 C 56.1 95.6 45.6 91.2 37.4 81.4 C 36.9 80.8 36.8 80.3 37 79.4 C 37.5 77.6 38 75.9 38.4 74 C 38.4 73.9 38.5 73.6 38.7 73.2 C 39.8 75.1 41 77 42.3 78.5 C 45.8 82.6 50.2 85.5 55.3 87.1 C 58.3 88.1 60.6 86.3 60.6 83.2 L 60.6 72.3 C 60.6 70.7 60 69.4 58.5 68.5 C 57.1 67.6 55.9 66.5 55.1 65 C 54.2 63.5 52.8 62.9 51.2 62.9 L 44.1 62.9 C 42.5 62.9 42.5 62.9 42.5 61.4 C 42.5 60 42.6 58.6 42.6 57.3 C 42.6 56.5 42.9 56.3 43.7 56.3 L 51.2 56.3 C 53.1 56.3 54.6 55.8 55.7 54.2 C 59.7 48.6 67.8 48.6 72 53.9 C 73.3 55.5 74.6 56.4 76.8 56.3 C 79.3 56.2 81.9 56.3 84.4 56.3 C 85.3 56.3 85.7 56.4 85.7 57.4 C 85.7 59 85.7 60.7 85.8 62.2 C 85.8 62.8 85.7 63 85 63 L 77 63 C 75.1 63 73.6 63.6 72.6 65.4 C 71.8 66.8 70.7 67.9 69.3 68.7 C 67.8 69.6 67.2 70.8 67.2 72.6 L 67.2 83.2 C 67.2 86.7 69.6 88.3 72.8 87.2 C 79.8 84.8 85.1 80.4 88.8 74.2 C 88.9 74.1 89.2 73.8 89.4 73.3 Z M 68.7 60.3 C 68.7 57.5 66.7 55.4 63.9 55.4 C 61.3 55.4 59.3 57.5 59.1 60.2 C 59.1 62.8 61.2 65.1 63.9 65.1 C 66.7 65.1 68.7 62.9 68.7 60.3 Z"
            fill="#ffffff"
            stroke-width="1"/>
        <path
            id="path_2_2"
            d="M 94.8 45.1 C 97.7 48.4 100.6 51.6 103.3 54.9 C 104.2 56 104.1 57.4 103.9 58.7 C 103.4 61.6 102.9 64.6 102.5 67.5 C 102.2 68.8 102 70.1 101.5 71.3 C 100.9 72.7 101 74.1 101.2 75.6 C 101.6 78 102 80.4 102.3 82.7 C 102.4 83.3 102.3 83.6 101.5 83.8 C 99.1 84.3 96.6 84.9 94.2 85.6 C 93.4 85.9 93.2 85.6 93.1 84.8 C 92.2 81.3 91.3 77.9 90.6 74.4 C 90.3 73.5 90.1 72.8 89.5 72.3 C 87.7 70.8 87.1 68.9 86.9 66.8 C 86.1 60.9 86.1 55 85.9 49.2 C 85.8 47.3 86.7 46.3 88 46.1 C 89.8 45.7 91.3 46.9 91.4 48.6 C 91.5 51 91.5 53.2 91.5 55.6 C 91.5 56.6 91.2 57.6 92.3 58.2 C 93.4 58.8 94.4 58.2 95.3 57.6 C 96.7 56.6 96.9 55.2 96.6 53.7 C 96.1 51.6 95.5 49.4 95 47.3 C 94.9 46.7 94.7 46 94.6 45.3 L 94.8 45.1 Z M 33.3 45.1 C 33.2 47.1 32.5 49.1 32 51.1 C 31.6 52.2 31.4 53.4 31.4 54.5 C 31.4 56.4 32.3 57.5 33.9 58.1 C 35.5 58.7 36.4 58.1 36.4 56.3 L 36.4 49.5 L 36.4 48.4 C 36.5 46.8 37.7 45.8 39.3 45.8 C 40.9 45.8 41.8 46.7 42.1 48.4 C 42.4 50.9 42 53.5 41.8 56 C 41.7 59.5 41.7 63 41.2 66.4 C 40.9 68.5 40.3 70.5 38.6 72 C 38 72.6 37.6 73.4 37.5 74.3 C 36.6 77.7 35.9 80.9 35 84.3 C 34.7 85.3 34.5 85.4 33.5 85.2 C 31.2 84.6 28.9 83.9 26.5 83.4 C 25.9 83.3 25.7 83 25.9 82.4 C 26.4 79.8 26.8 77 27.2 74.4 C 27.3 73.5 27.3 72.5 26.9 71.6 C 25.4 68.5 25.4 65 24.8 61.5 C 24.4 59.7 23.8 57.9 24.3 56 C 24.4 55.4 24.6 54.9 24.9 54.5 C 27.6 51.4 30.5 48.3 33.3 45.1 Z"
            fill="#ffffff"
            stroke-width="1"/>
        <path
            id="path_3_2"
            d="M 92.4 52.4 L 92.4 48.8 C 92.3 46.5 91 45.2 88.8 45 C 88 45 87.8 44.5 87.4 44.1 C 81.1 35.6 72.8 31.2 62.1 31.7 C 53 32.2 45.7 36.5 40.3 44 C 39.8 44.6 39.4 45 38.7 45.1 C 36.8 45.4 35.6 46.9 35.6 48.9 L 35.6 55.9 C 35.6 56.4 35.7 57.2 35.2 57.4 C 34.7 57.7 34.1 57.3 33.6 57 C 32.6 56.5 32.2 55.5 32.2 54.4 C 32.2 53.3 32.6 52.3 32.8 51.3 C 33.4 49 34.2 46.8 34.4 44.5 C 34.8 41.6 36.5 39.7 38.3 37.7 C 53 21.3 79 22.8 91.7 40.6 C 92.6 41.9 93.2 43.1 93.5 44.7 C 93.9 47.2 94.8 49.7 95.4 52.1 C 95.7 53 95.8 53.7 95.8 54.6 C 95.8 55.4 95.7 56 95 56.5 C 94.3 57 93.6 57.6 92.9 57.4 C 92.2 57.2 92.4 56.1 92.4 55.5 C 92.4 54.4 92.5 53.4 92.4 52.4 Z"
            fill="#ffffff"
            stroke-width="1"/>
    </g>
    <path
        id="path_9"
        d="M 64 0 C 99.346 0 128 28.654 128 64 C 128 99.346 99.346 128 64 128 C 28.654 128 0 99.346 0 64 C 0 28.654 28.654 0 64 0 Z"
        fill="#e73458"/>
    <path
        id="path_10"
        d="M 47.932 95.319 C 51.336 93.413 54.059 90.825 56.102 87.693 C 55.013 88.374 53.923 89.191 52.698 89.872 C 50.519 91.234 48.204 92.323 45.481 92.732 C 44.391 92.868 43.574 92.868 42.757 92.187 C 40.034 89.872 37.311 87.557 34.723 85.106 C 37.855 84.425 40.851 84.017 43.711 82.383 C 42.349 82.519 41.123 82.655 40.034 82.519 C 37.855 82.519 35.54 82.383 33.362 82.247 C 32.953 82.247 32.408 81.974 32.136 81.702 C 30.366 79.796 29.004 77.753 28.459 75.166 C 28.459 75.03 28.459 74.893 28.459 74.621 C 34.042 75.574 39.762 76.119 45.345 75.847 C 50.928 75.574 56.511 75.166 61.685 72.715 C 61.413 71.081 61.957 69.583 63.455 68.902 C 64 68.63 64.817 68.63 65.362 68.902 C 67.54 70.264 69.719 71.898 71.762 73.396 C 72.442 73.804 72.579 74.485 72.17 75.166 C 71.625 76.119 71.217 77.345 69.719 77.753 C 69.855 79.251 70.128 80.613 70.264 82.111 C 70.808 87.421 71.081 92.732 70.128 98.042 C 70.128 98.179 70.128 98.315 69.991 98.451 C 69.038 101.991 68.221 102.672 64.408 102.128 C 61.821 101.855 61.821 101.855 62.774 99.54 C 63.864 96.545 64.681 93.413 64.681 90.145 C 64.681 89.872 64.681 89.6 64.681 89.055 C 64.545 89.464 64.408 89.6 64.408 89.6 C 63.319 93.14 61.821 96.681 59.779 99.949 C 59.37 100.493 59.098 100.63 58.281 100.493 C 54.74 99.404 51.336 97.77 48.34 95.728 C 48.204 95.591 48.068 95.455 47.932 95.319 Z"
        fill="#ffffff"/>
    <path
        id="path_11"
        d="M 72.987 69.583 C 71.353 68.494 69.855 67.54 68.357 66.451 C 70.264 63.864 72.306 61.413 74.213 58.962 C 80.204 51.2 86.196 43.438 92.323 35.677 C 92.596 35.268 92.868 34.996 93.277 34.587 C 93.957 34.043 94.911 33.907 95.728 34.315 C 96.545 34.86 96.953 35.404 96.681 36.494 C 96.545 36.902 96.409 37.311 96.136 37.719 C 88.647 48.204 81.021 58.689 73.396 69.038 C 73.259 69.311 73.123 69.447 72.987 69.583 Z"
        fill="#ffffff"/>
    <path
        id="path_12"
        d="M 40.987 67.54 C 40.17 64.408 38.264 62.911 35.541 62.366 C 36.63 61.821 37.855 61.276 39.081 60.459 C 40.307 59.642 40.715 58.281 41.124 56.783 C 41.941 59.643 43.847 61.549 46.843 62.093 C 45.617 62.638 44.392 63.183 43.302 64 C 41.941 64.817 41.26 66.042 40.987 67.54 Z"
        fill="#ffffff"/>
    <path
        id="path_13"
        d="M 55.421 46.706 C 52.562 47.387 50.655 48.613 49.974 51.336 C 49.294 48.749 47.796 47.387 45.209 46.843 C 47.796 46.162 49.43 44.664 49.974 41.94 C 50.791 44.528 52.426 46.162 55.421 46.706 Z"
        fill="#ffffff"/>
    <path
        id="path_14"
        d="M 57.328 56.375 C 59.37 55.83 60.46 54.877 60.868 52.834 C 61.413 54.74 62.638 55.83 64.681 56.238 C 62.775 56.783 61.413 57.736 60.868 59.507 C 60.324 57.872 59.234 56.919 57.328 56.375 Z"
        fill="#ffffff"/>
    <path
        id="path_15"
        d="M 82.519 35.404 L 68.358 62.774 C 68.494 62.774 68.494 62.774 68.63 62.911 C 69.175 63.047 69.856 63.319 70.264 63.591 C 70.945 63.864 71.49 64.272 72.034 64.817 L 86.196 37.311 C 86.741 36.357 86.332 34.996 85.243 34.587 C 84.29 34.043 83.064 34.451 82.519 35.404 Z"
        fill="#ffffff"/>
    <path
        id="path_16"
        d="M 35.813 86.332 C 38.128 88.374 40.851 90.145 43.983 91.643 C 49.43 94.094 54.196 94.774 54.332 94.911 L 54.468 94.911 C 60.187 94.774 64.545 92.868 67.677 89.328 C 71.626 84.698 73.124 77.617 72.851 71.626 C 72.715 69.855 72.17 68.085 70.945 66.86 C 70.809 66.723 70.809 66.723 70.672 66.587 C 70.264 66.179 69.719 65.906 69.311 65.634 C 68.902 65.362 68.358 65.226 67.949 65.089 C 67.813 65.089 67.541 64.953 67.404 64.953 C 67.132 64.953 66.86 64.817 66.587 64.817 C 64.545 64.817 62.638 66.043 61.277 67.404 C 59.779 68.766 58.281 70.128 56.511 71.353 C 54.604 72.579 52.562 73.26 50.519 73.804 C 47.796 74.621 44.936 75.03 42.077 75.438 C 39.489 75.711 37.038 75.847 34.451 75.847 C 33.498 75.847 32.409 75.847 31.455 75.711 L 31.319 75.711 C 31.319 75.711 31.319 75.711 31.183 75.711 C 30.775 75.711 30.366 75.847 30.094 76.255 C 29.821 76.664 29.685 77.072 29.821 77.617 C 30.911 80.749 32.953 83.745 35.813 86.332 Z M 33.907 78.434 C 34.043 78.434 34.179 78.434 34.315 78.434 C 36.358 78.434 39.217 78.298 42.485 78.026 C 49.294 77.209 54.877 75.574 59.098 73.123 C 59.234 72.987 59.37 72.987 59.507 72.987 C 59.643 72.987 59.779 72.987 59.915 73.123 C 62.366 74.485 66.179 76.528 68.902 77.481 C 69.175 77.617 69.447 77.889 69.447 78.298 C 69.175 81.157 68.221 84.698 65.77 87.557 C 63.319 90.417 59.643 91.915 54.877 92.187 L 54.741 92.187 C 54.196 92.051 53.107 91.915 51.472 91.506 C 51.881 91.37 52.426 91.098 52.834 90.826 C 53.243 90.553 53.651 90.281 54.06 90.009 C 55.421 89.191 56.647 88.238 57.6 87.421 C 57.872 87.285 57.6 86.877 57.328 87.013 C 55.149 87.966 52.426 88.511 49.975 88.919 C 49.158 89.055 48.477 89.191 47.796 89.191 C 46.979 89.328 46.298 89.328 45.617 89.464 C 45.481 89.328 45.345 89.328 45.209 89.191 C 43.847 88.511 42.621 87.83 41.396 87.149 C 41.941 87.149 42.485 87.013 43.03 86.877 C 43.575 86.74 43.983 86.604 44.528 86.468 C 46.026 86.06 47.387 85.515 48.341 85.243 C 48.477 85.106 48.477 84.97 48.204 84.97 C 46.434 85.106 44.119 85.106 42.077 85.106 C 41.396 85.106 40.715 85.106 40.17 85.106 C 39.489 85.106 38.809 85.106 38.4 85.106 C 38.128 84.97 37.992 84.698 37.719 84.562 C 37.447 84.289 37.175 84.017 36.902 83.745 C 37.311 83.745 37.719 83.609 38.128 83.609 C 38.536 83.472 38.945 83.472 39.353 83.336 C 40.987 82.928 42.621 82.383 43.575 81.974 C 43.711 81.838 43.711 81.702 43.438 81.702 C 41.804 81.838 39.626 81.838 37.719 81.838 C 37.175 81.838 36.766 81.838 36.358 81.838 C 35.813 81.838 35.404 81.838 34.996 81.838 C 34.451 81.021 33.907 80.34 33.498 79.523 C 33.362 78.706 33.634 78.434 33.907 78.434 Z"
        fill="#ffffff"/>
    <path
        id="path_17"
        d="M 82.383 85.515 C 82.383 87.285 80.885 88.783 79.115 88.783 C 77.345 88.783 75.847 87.285 75.847 85.515 C 75.847 83.745 77.345 82.247 79.115 82.247 C 81.022 82.247 82.383 83.745 82.383 85.515 Z"
        fill="#ffffff"/>
    <path
        id="path_18"
        d="M 73.668 93.14 C 73.668 94.094 72.851 94.774 72.034 94.774 C 71.081 94.774 70.4 93.957 70.4 93.14 C 70.4 92.187 71.217 91.506 72.034 91.506 C 72.851 91.37 73.668 92.187 73.668 93.14 Z"
        fill="#ffffff"/>
    <path
        id="path_19"
        d="M 82.792 92.732 C 82.792 93.685 81.975 94.366 81.158 94.366 C 80.205 94.366 79.524 93.549 79.524 92.732 C 79.524 91.915 80.341 91.098 81.158 91.098 C 81.975 91.098 82.792 91.779 82.792 92.732 Z"
        fill="#ffffff"/>
    <path
        id="path_20"
        d="M 64 0 C 47.032 0 30.742 6.747 18.746 18.746 C 6.747 30.742 0 47.032 0 64 C 0 80.968 6.747 97.258 18.746 109.254 C 30.742 121.253 47.032 128 64 128 C 80.968 128 97.258 121.253 109.254 109.254 C 121.253 97.258 128 80.968 128 64 C 128 47.032 121.253 30.742 109.254 18.746 C 97.258 6.747 80.968 0 64 0 Z"
        fill="#e5008c"
        stroke-width="1"/>
    <path
        id="path_1_3"
        d="M 98.56 58.56 L 88.96 58.56 L 88.96 56.16 L 97.28 56.16 C 97.92 56.16 98.4 55.68 98.4 55.04 L 98.4 41.92 C 98.4 41.28 97.92 40.8 97.28 40.8 L 78.24 40.8 C 77.6 40.8 77.12 41.28 77.12 41.92 L 77.12 55.04 C 77.12 55.68 77.6 56.16 78.24 56.16 L 86.56 56.16 L 86.56 58.56 L 74.56 58.56 C 74.24 55.36 72.64 52.48 69.92 50.72 L 69.92 37.12 C 69.92 31.2 65.12 26.4 59.2 26.4 C 53.28 26.4 48.48 31.2 48.48 37.12 L 48.48 50.72 C 45.76 52.48 44 55.36 43.84 58.56 L 41.44 58.56 L 41.44 56.16 C 41.44 55.52 40.96 55.04 40.32 55.04 L 40.16 55.04 L 40.16 54.4 C 40.16 52.32 38.72 50.72 36.8 50.24 C 36.8 49.6 36.32 49.12 35.68 49.12 C 35.04 49.12 34.56 49.6 34.56 50.24 C 32.64 50.56 31.2 52.32 31.2 54.4 L 31.2 55.04 L 31.04 55.04 C 30.4 55.04 29.92 55.52 29.92 56.16 L 29.92 58.56 C 29.28 58.56 28.8 59.04 28.8 59.68 L 28.8 64.48 C 28.8 65.12 29.28 65.6 29.92 65.6 L 31.04 65.6 L 31.04 96.64 C 31.04 97.28 31.52 97.76 32.16 97.76 L 96.48 97.76 C 97.12 97.76 97.6 97.28 97.6 96.64 L 97.6 65.6 L 98.72 65.6 C 99.36 65.6 99.84 65.12 99.84 64.48 L 99.84 59.68 C 99.68 59.04 99.2 58.56 98.56 58.56 Z M 79.52 53.76 L 79.52 43.04 L 96.16 43.04 L 96.16 53.76 L 79.52 53.76 Z M 68.48 52.48 C 70.72 53.76 72.16 56 72.32 58.56 L 60.48 58.56 L 60.48 55.04 C 61.44 54.72 62.4 54.24 63.04 53.44 L 64.64 51.52 C 65.76 51.52 67.04 51.84 68.16 52.32 C 68.16 52.32 68.32 52.48 68.48 52.48 Z M 50.88 37.12 C 50.88 32.48 54.56 28.8 59.2 28.8 C 63.84 28.8 67.52 32.48 67.52 37.12 L 67.52 49.6 C 66.4 49.28 65.12 49.12 64 49.12 L 63.84 49.12 L 63.68 49.12 C 63.68 49.12 63.52 49.12 63.52 49.28 L 63.36 49.44 L 61.44 51.84 C 60.48 52.8 59.04 52.96 57.92 52.16 L 57.6 51.84 L 55.68 49.44 L 55.52 49.28 L 55.36 49.12 L 54.88 49.12 C 53.6 49.12 52.48 49.28 51.36 49.6 L 50.88 37.12 Z M 50.08 52.48 C 50.24 52.48 50.4 52.32 50.56 52.32 C 51.68 51.84 52.8 51.52 54.08 51.52 L 55.68 53.44 C 56.32 54.24 57.28 54.88 58.24 55.04 L 58.24 58.56 L 46.4 58.56 C 46.4 56 47.84 53.76 50.08 52.48 Z M 33.12 54.4 C 33.12 53.44 33.92 52.64 34.88 52.64 L 35.68 52.64 C 36.64 52.64 37.44 53.44 37.44 54.4 L 37.44 55.04 L 32.96 55.04 L 32.96 54.4 Z M 31.84 57.28 L 39.04 57.28 L 39.04 58.4 L 31.84 58.4 L 31.84 57.28 Z M 95.04 95.52 L 33.12 95.52 L 33.12 65.76 L 95.04 65.76 L 95.04 95.52 Z M 97.28 63.36 L 30.56 63.36 L 30.56 60.96 L 97.28 60.96 L 97.28 63.36 Z"
        fill="#ffffff"
        stroke-width="1"/>
    <path
        id="path_2_3"
        d="M 59.2 49.28 C 63.2 49.28 66.4 46.08 66.4 42.08 L 66.4 37.12 C 66.4 36.48 65.92 36 65.28 36 C 63.2 36 59.84 35.52 59.2 34.24 C 59.04 33.76 58.56 33.6 58.08 33.6 C 57.6 33.6 57.12 33.92 56.96 34.4 C 56.48 36 55.04 37.12 53.28 37.12 C 52.64 37.12 52.16 37.6 52.16 38.24 L 52.16 42.08 C 52.16 46.08 55.36 49.28 59.2 49.28 Z M 54.4 39.36 C 56 39.04 57.44 38.08 58.24 36.64 C 60 37.6 61.92 38.08 63.84 38.24 L 63.84 42.08 C 63.84 44.64 61.76 46.88 59.04 46.88 C 56.32 46.88 54.24 44.8 54.24 42.08 L 54.24 39.36 Z"
        fill="#ffffff"
        stroke-width="1"/>
    <path
        id="path_3_3"
        d="M 64.32 0 C 47.352 0 31.062 6.747 19.066 18.746 C 7.067 30.742 0.32 47.032 0.32 64 C 0.32 80.968 7.067 97.258 19.066 109.254 C 31.062 121.253 47.352 128 64.32 128 C 81.288 128 97.578 121.253 109.574 109.254 C 121.573 97.258 128.32 80.968 128.32 64 C 128.32 47.032 121.573 30.742 109.574 18.746 C 97.578 6.747 81.288 0 64.32 0 Z"
        fill="#e5008c"
        stroke-width="1"/>
    <g id="group_2">
        <path
            id="path_4_1"
            d="M 71.36 78.88 C 70.72 78.88 70.08 79.36 70.08 80.16 C 70.08 80.8 70.56 81.44 71.36 81.44 C 72 81.44 72.64 80.96 72.64 80.16 C 72.64 79.52 72 78.88 71.36 78.88 Z M 71.36 78.88"
            fill="#ffffff"
            stroke-width="1"/>
        <path
            id="path_5_1"
            d="M 89.44 36 L 38.24 36 C 34.88 36 32 38.72 32 42.24 L 32 80.32 C 32 83.68 34.72 86.56 38.24 86.56 L 57.6 86.56 L 57.6 92.32 L 56.32 92.32 C 54.72 92.32 53.12 92.96 52 94.08 C 50.88 95.2 50.24 96.8 50.24 98.4 C 50.24 99.04 50.72 99.68 51.52 99.68 L 76.32 99.68 C 76.96 99.68 77.6 99.2 77.6 98.4 C 77.6 95.04 74.88 92.16 71.36 92.16 L 70.08 92.16 L 70.08 86.4 L 89.44 86.4 C 92.8 86.4 95.68 83.68 95.68 80.16 L 95.68 42.08 C 95.68 38.72 92.96 36 89.44 36 Z M 38.4 38.4 L 89.6 38.4 C 91.68 38.4 93.28 40 93.28 42.08 L 93.28 73.92 L 87.52 73.92 L 87.52 45.28 C 87.52 44.64 87.04 44 86.24 44 L 76.32 44 C 75.68 44 75.04 44.48 75.04 45.28 L 75.04 73.92 L 68.8 73.92 C 68.8 72.64 68.8 71.36 68.64 70.08 C 68.48 64.96 68 61.6 67.68 60.16 C 70.24 58.24 70.88 54.72 69.44 52 L 65.12 44.48 C 64.96 44.16 64.48 43.84 64 43.84 C 63.52 43.84 63.2 44 62.88 44.48 L 58.56 52 C 57.12 54.56 57.6 57.92 60 59.84 C 59.68 61.28 59.2 64.8 58.88 70.08 C 58.88 71.36 58.72 72.64 58.72 73.92 L 52.48 73.92 L 52.48 55.36 C 52.48 55.2 52.48 55.04 52.32 54.88 L 47.36 44.96 C 47.2 44.48 46.72 44.32 46.24 44.32 C 45.76 44.32 45.28 44.64 45.12 44.96 L 40.16 54.88 C 40.16 55.04 40 55.2 40 55.36 L 40 73.92 L 34.24 73.92 L 34.24 42.08 C 34.56 40.16 36.32 38.4 38.4 38.4 Z M 77.6 73.92 L 77.6 46.56 L 85.12 46.56 L 85.12 49.12 L 83.84 49.12 C 83.2 49.12 82.56 49.6 82.56 50.4 C 82.56 51.04 83.04 51.68 83.84 51.68 L 85.12 51.68 L 85.12 55.36 L 83.84 55.36 C 83.2 55.36 82.56 55.84 82.56 56.64 C 82.56 57.28 83.04 57.92 83.84 57.92 L 85.12 57.92 L 85.12 61.6 L 83.84 61.6 C 83.2 61.6 82.56 62.08 82.56 62.88 C 82.56 63.52 83.04 64.16 83.84 64.16 L 85.12 64.16 L 85.12 69.12 L 83.84 69.12 C 83.2 69.12 82.56 69.6 82.56 70.4 C 82.56 71.2 83.04 71.68 83.84 71.68 L 85.12 71.68 L 85.12 74.24 L 77.6 74.24 Z M 64.16 61.44 C 64.64 61.44 65.12 61.44 65.44 61.28 C 65.6 62.72 66.08 65.44 66.24 68.96 L 61.6 68.96 C 61.76 65.44 62.24 62.72 62.4 61.12 C 63.04 61.44 63.52 61.44 64.16 61.44 Z M 64.16 59.04 C 61.28 59.04 59.52 56 60.96 53.44 L 64.16 47.84 L 67.36 53.44 C 68.8 55.84 67.04 59.04 64.16 59.04 Z M 61.44 71.52 L 66.24 71.52 L 66.24 74.08 L 61.28 74.08 C 61.44 73.12 61.44 72.32 61.44 71.52 Z M 47.84 73.92 L 47.84 56.48 L 50.4 56.48 L 50.4 73.92 L 47.84 73.92 Z M 42.72 73.92 L 42.72 56.48 L 45.28 56.48 L 45.28 73.92 L 42.72 73.92 Z M 43.52 54.08 L 46.4 48.16 L 49.28 54.08 L 43.52 54.08 Z M 74.88 97.12 L 52.96 97.12 C 53.12 96.64 53.44 96.16 53.92 95.68 C 54.56 95.04 55.52 94.56 56.48 94.56 L 71.36 94.56 C 72.96 94.56 74.4 95.68 74.88 97.12 Z M 67.68 92.16 L 60.16 92.16 L 60.16 86.4 L 67.68 86.4 L 67.68 92.16 Z M 89.44 83.84 L 38.24 83.84 C 36.16 83.84 34.56 82.24 34.56 80.16 L 34.56 76.48 L 93.12 76.48 L 93.12 80.16 C 93.28 82.24 91.52 83.84 89.44 83.84 Z M 89.44 83.84"
            fill="#ffffff"
            stroke-width="1"/>
        <path
            id="path_6_1"
            d="M 66.4 78.88 L 58.88 78.88 C 58.24 78.88 57.6 79.36 57.6 80.16 C 57.6 80.8 58.08 81.44 58.88 81.44 L 66.4 81.44 C 67.04 81.44 67.68 80.96 67.68 80.16 C 67.68 79.52 67.04 78.88 66.4 78.88 Z M 66.4 78.88"
            fill="#ffffff"
            stroke-width="1"/>
    </g>
</svg>
