<svg
    xmlns="http://www.w3.org/2000/svg"
    viewBox="0 0 128 128"
    id="vector">
    <path
        id="path"
        d="M 64 0 C 47.033 0 30.743 6.747 18.745 18.745 C 6.747 30.743 0 47.033 0 64 C 0 80.967 6.747 97.257 18.745 109.255 C 30.743 121.253 47.033 128 64 128 C 80.967 128 97.257 121.253 109.255 109.255 C 121.253 97.257 128 80.967 128 64 C 128 47.033 121.253 30.743 109.255 18.745 C 97.257 6.747 80.967 0 64 0 Z"
        fill="#e5008c"
        stroke-width="1"/>
    <path
        id="path_1"
        d="M 79.2 44.1 C 78 44.5 77 45.2 76.1 46.5 C 77.2 49.6 79.3 55.7 80.5 58.9 C 81.1 55 81.6 50.8 81.6 50.8 C 81.6 50.8 80.2 46.8 79.2 44.1 Z M 85.5 31.1 C 84.042 31.1 82.642 31.68 81.611 32.711 C 80.58 33.742 80 35.142 80 36.6 C 80 38.058 80.58 39.458 81.611 40.489 C 82.642 41.52 84.042 42.1 85.5 42.1 C 86.958 42.1 88.358 41.52 89.389 40.489 C 90.42 39.458 91 38.058 91 36.6 C 91 35.142 90.42 33.742 89.389 32.711 C 88.358 31.68 86.958 31.1 85.5 31.1 Z M 101.8 65.4 C 101.8 65.3 96.9 51.4 96.2 49.3 C 95.2 46.4 93.7 44.7 91.7 44.2 C 90.6 47.3 89.5 50.7 89.5 50.7 C 89.5 50.7 90.9 59.7 92.1 67.8 C 92.2 68.5 91.6 69.3 90.9 69.3 L 80.4 69.3 C 80 69.3 79.5 69.1 79.3 68.7 C 78.3 69.2 77.2 69.3 76.1 69.1 L 75.6 71.5 C 75.8 72.5 75.7 73.5 75.1 74.4 C 75.2 75.1 75.8 75.5 76.5 75.5 L 78.5 75.5 L 78.5 94.6 C 78.5 96.3 79.9 97.7 81.6 97.7 C 83.3 97.7 84.7 96.3 84.7 94.6 L 84.7 75.4 L 86.1 75.4 L 86.1 94.5 C 86.1 96.2 87.5 97.6 89.2 97.6 C 90.9 97.6 92.3 96.2 92.3 94.5 L 92.3 75.4 L 94.3 75.4 C 95.2 75.4 95.9 74.5 95.8 73.7 C 91.8 52.8 92.2 55.2 92.1 54.1 C 93.7 58.8 96.6 66.8 96.7 67.3 C 97.2 68.7 98.7 69.4 100.1 68.9 C 101.6 68.2 102.3 66.7 101.8 65.4 Z M 81.4 43.9 C 82.5 47.1 81.9 45.5 83.6 50.4 L 87.1 50.4 C 87.8 48.2 88.6 46.2 89.3 43.9 L 81.4 43.9 Z M 38.5 31.1 C 37.042 31.1 35.642 31.68 34.611 32.711 C 33.58 33.742 33 35.142 33 36.6 C 33 38.058 33.58 39.458 34.611 40.489 C 35.642 41.52 37.042 42.1 38.5 42.1 C 39.958 42.1 41.358 41.52 42.389 40.489 C 43.42 39.458 44 38.058 44 36.6 C 44 35.142 43.42 33.742 42.389 32.711 C 41.358 31.68 39.958 31.1 38.5 31.1 Z M 48.6 71.2 L 48.1 68.8 C 47.7 69 47.4 69 47 69 C 46.3 69 45.5 68.9 44.9 68.5 C 44.7 68.9 44.3 69.1 43.8 69.1 L 33.3 69.1 C 32.6 69.1 31.9 68.4 32.1 67.6 C 34.6 53.4 34 57 34.7 50.7 C 33.2 46.6 33.2 46.3 32.3 44.1 C 30.3 44.7 28.8 46.3 27.8 49.2 C 27.1 51.4 22.3 65.2 22.2 65.3 C 21.7 66.7 22.4 68.2 23.8 68.7 C 25.2 69.2 26.7 68.5 27.2 67.1 C 27.3 66.6 30.3 58.4 31.9 53.7 C 31.8 55.1 32.3 52.5 28.2 73.6 C 28 74.5 28.7 75.3 29.6 75.3 L 31.6 75.3 L 31.6 94.4 C 31.6 96.1 33 97.5 34.7 97.5 C 36.4 97.5 37.8 96.1 37.8 94.4 L 37.8 75.4 L 39.2 75.4 L 39.2 94.5 C 39.2 96.2 40.6 97.6 42.3 97.6 C 44 97.6 45.4 96.2 45.4 94.5 L 45.4 75.4 L 47.4 75.4 C 48 75.4 48.6 74.9 48.8 74.3 C 48.4 73.2 48.4 72.2 48.6 71.2 Z M 44.6 44 C 42.7 49.5 43 48.6 42.4 50.5 C 43.1 56.6 42.9 54.9 43.5 58.6 C 44.6 55.6 46.7 49.4 47.7 46.2 C 47 45.1 45.9 44.4 44.6 44 Z M 34.4 43.9 C 35.5 47.1 34.9 45.5 36.6 50.4 L 40.1 50.4 C 40.8 48.2 41.6 46.2 42.3 43.9 L 34.4 43.9 Z"
        fill="#ffffff"
        stroke-width="1"/>
    <path
        id="path_2"
        d="M 79.6 63 C 78.7 60.4 74.5 48.3 73.6 45.6 L 73.6 45.5 C 72.7 43 71.2 40.6 68.7 39.9 C 67.6 43 66.2 46.9 66.2 46.9 C 66.2 46.9 66.4 49.9 69.1 65.3 C 69.2 66.2 68.6 66.9 67.7 66.9 L 56.5 66.9 C 55.6 66.9 55 66.2 55.1 65.3 C 57.7 49.8 58 47 58 47 C 58 47 56.6 43.3 55.5 39.8 C 53.4 40.4 51.6 42.3 50.6 45.4 C 49.9 47.6 45.4 60.4 44.6 62.5 C 43.9 64.5 44.8 65.9 46.2 66.4 C 47.7 66.9 49.3 66.2 49.8 64.7 C 49.9 64.2 53 55.2 54.9 50.2 L 50.7 71.9 C 50.5 72.9 51.3 73.8 52.2 73.8 L 54.3 73.8 L 54.3 94.5 C 54.3 96.4 55.8 97.9 57.7 97.9 C 59.6 97.9 61.1 96.4 61.1 94.5 L 61.1 73.7 L 62.6 73.7 L 62.6 94.4 C 62.6 96.3 64.1 97.8 66 97.8 C 67.9 97.8 69.4 96.3 69.4 94.4 L 69.4 73.7 L 71.5 73.7 C 72.5 73.7 73.2 72.8 73 71.8 C 68.6 49.3 69.1 51.8 69 50.6 C 70.7 55.6 73.9 64.3 74 64.8 C 74.6 66.5 76.6 67.2 78.1 66.3 C 79.5 65.7 80.1 64.4 79.6 63 Z"
        fill="#ffffff"
        stroke-width="1"/>
    <path
        id="path_3"
        d="M 57.6 39.8 C 58 40.7 59.7 45.8 60.1 46.8 L 64 46.8 C 64.9 44.4 65.6 42.3 66.5 39.8 L 57.6 39.8 Z M 62 26.1 C 58.8 26.1 56.1 28.7 56.1 32 C 56.1 35.3 58.7 37.9 62 37.9 C 65.3 37.9 67.9 35.3 67.9 32 C 67.9 28.7 65.2 26.1 62 26.1 Z"
        fill="#ffffff"
        stroke-width="1"/>
</svg>
