<svg
    xmlns="http://www.w3.org/2000/svg"
    viewBox="0 0 128 128"
    id="vector">
    <path
        id="path"
        d="M 64 0 C 47.033 0 30.743 6.747 18.745 18.745 C 6.747 30.743 0 47.033 0 64 C 0 80.967 6.747 97.257 18.745 109.255 C 30.743 121.253 47.033 128 64 128 C 80.967 128 97.257 121.253 109.255 109.255 C 121.253 97.257 128 80.967 128 64 C 128 47.033 121.253 30.743 109.255 18.745 C 97.257 6.747 80.967 0 64 0 Z"
        fill="#e5008c"
        stroke-width="1"/>
    <g id="group">
        <path
            id="path_1"
            d="M 60.5 100.2 C 57.8 99.2 56.8 97.2 56.9 94.4 C 57 88.7 57 83 57 77.5 C 57 75.6 57.6 74.2 59.1 72.9 C 62.6 69.8 65.8 66.6 69.1 63.5 C 69.9 62.9 70.1 62.2 69.9 61.2 C 69.4 59.5 69.1 57.9 68.7 56.2 C 68.6 55.4 68.4 54.8 68.7 54 C 70 50.1 70.1 50 73.7 52.1 C 76.3 53.6 78.8 55.2 81.6 56.6 C 82.5 57.1 83 57.8 83.3 58.8 C 84.3 63.4 85.5 67.9 86.5 72.6 C 86.8 73.8 87.1 74.3 88.6 74 C 94.9 73 97.7 68.5 96.1 62.3 C 95.3 59.7 93.9 57.7 92.4 55.5 C 91.6 54.5 90.9 54.9 90.1 55 C 86.8 55.6 85.3 54.7 84.6 51.7 C 83.6 47.2 82.4 42.8 81.4 38.3 C 80.6 34.8 81.5 33.3 84.9 32.5 C 86.7 32 88.6 31.6 90.4 31.1 C 93.4 30.5 95 31.5 95.7 34.4 C 96.9 39 97.9 43.7 99 48.4 C 99.6 51.2 98.7 53 96 53.5 C 94.3 53.9 94.3 54.3 95.2 55.6 C 97 58.2 98.3 60.9 98.7 64.1 C 99.3 70.1 96.4 74.5 90.5 76.1 C 90.1 76.2 89.7 76.2 89.3 76.4 C 87.5 76.4 87.5 77.2 88.3 78.5 C 91.3 83 94.1 87.5 96.9 92 C 99.5 96 99.1 97.9 95.1 100.4 L 92.7 100.4 C 91.3 99.6 90.3 98.3 89.4 96.9 C 88 94.6 86.6 92.4 85.2 90.1 C 81.3 84.3 77.5 78.5 76.7 71.3 C 76.6 70 75.9 70.3 75.3 70.9 C 72.6 73.1 69.9 75.4 67.2 77.6 C 66.1 78 66 78.7 66 79.6 C 65.9 84.6 65.7 89.6 65.7 94.7 C 65.7 97.4 64.8 99.3 62.4 100.4 C 61.7 100.2 61.1 100.2 60.5 100.2 Z M 18.8 86.5 C 19.3 86 19.8 85.2 20.6 86 C 21 86.4 21.1 86.9 20.9 87.3 C 20.3 88.3 19.5 87.7 18.8 87.3 L 18.8 86.5 Z"
            fill="#ffffff"
            stroke-width="1"/>
        <path
            id="path_2"
            d="M 81.9 54.5 C 78.6 52.6 75.3 50.6 72.1 48.8 C 71.2 48.3 71.5 47.8 71.7 47.1 C 71.9 46.4 72.7 45.4 71.6 44.9 C 70.3 44.4 70.2 45.5 69.8 46.3 C 68.6 48.6 67.6 51.1 66.5 53.4 C 66.1 54.3 65.6 54.9 64.7 55.2 C 60.8 56.6 57.1 58.2 53.1 59.6 C 51.6 60.1 50 60 49.2 58.2 C 48.6 56.8 48.9 55.5 50.2 54.6 C 50.7 54.2 51.4 54.1 51.9 53.8 C 54.3 52.9 56.9 52 59.5 51.1 C 60.7 50.7 61.4 50.1 61.8 48.8 C 63.1 45.1 64.4 41.5 65.8 37.9 C 67.2 34.3 70.9 32.4 74 33.7 C 76.2 34.6 77.5 36.3 78 38.3 C 79.3 43.3 80.4 48.2 81.6 53.2 C 81.9 53.6 81.9 54 81.9 54.5 Z M 59.7 26.3 L 50.8 26.3 C 50 26.3 49.3 26.4 49.3 25.1 C 49.3 24.1 50.1 24.2 50.7 24.2 L 52.1 24.2 C 54.5 24.3 56.6 24.6 57.5 21.2 C 58.3 18.4 62 17.2 65.1 18 C 67.9 18.8 70 21.9 70 24.8 C 70 25.8 69.6 26.2 68.6 26.2 C 65.7 26.3 62.8 26.3 59.7 26.3 Z"
            fill="#ffffff"
            stroke-width="1"/>
        <path
            id="path_3"
            d="M 61.1 28.1 L 68.7 28.1 C 69.9 28.1 70.1 28.6 69.9 29.6 C 69.4 31.7 68.1 33.2 66.2 33.8 C 64.7 34.3 64.5 35.1 64.5 36.4 C 64.5 40.3 64.1 40.6 60.4 39.4 C 55.6 37.9 53.2 34.3 52.2 29.5 C 51.9 28.3 52.5 28.1 53.5 28.1 L 61.1 28.1 Z M 58.5 30 C 57.6 30 56.6 30.1 55.7 30 C 54.4 29.9 54.3 30.5 54.7 31.4 C 55.6 33.6 56.9 35.4 58.9 36.5 C 59.9 37.1 61.2 38 62.2 37.5 C 63.2 37 62.5 35.6 62.6 34.4 L 62.6 34 C 62.8 30 62.8 30 58.5 30 Z M 48.9 60.4 C 48.8 60.8 48.5 61.2 48.3 61.6 C 43.8 68 39.2 74.6 34.5 81 C 33.9 81.8 33.2 82.4 32.3 81.8 C 31.5 81.2 31.8 80.4 32.3 79.6 C 36.9 73 41.6 66.5 46.2 59.9 C 46.6 59.3 47.1 58.9 47.9 59.1 C 48.5 59.4 48.7 59.8 48.9 60.4 Z M 90.1 28 C 90.2 28.9 89.5 29 88.9 29.2 C 87.6 29.6 86.3 29.8 85.2 30.1 C 83.3 30.5 82 29.3 82.2 27.4 C 82.3 26.6 82.8 26.6 83.4 26.5 C 84.6 26.1 85.8 25.9 87 25.6 C 89.1 25 90.1 25.7 90.1 28 Z M 29.2 87.9 C 29.2 88.4 28.9 88.9 28.3 89.1 C 27.5 89.2 27.1 88.7 27 88.1 C 27 87.6 27.4 87.1 28 87.1 C 28.8 86.9 29.2 87.2 29.2 87.9 Z M 31.9 96.8 C 31.3 96.8 30.9 96.4 30.7 95.9 C 30.7 95.1 31.1 94.7 31.9 94.7 C 32.5 94.7 32.9 95.1 32.9 95.7 C 32.8 96.4 32.5 96.8 31.9 96.8 Z M 32.8 91.8 C 32.8 92.4 32.4 92.8 31.8 93 C 31.2 93.2 30.8 92.7 30.6 92.1 C 30.6 91.3 30.9 90.8 31.6 90.8 C 32.1 90.8 32.7 91.2 32.8 91.8 Z M 27 90.9 C 27 91.7 26.7 92.2 26.1 92.2 C 25.3 92.3 24.9 91.9 24.9 91.2 C 24.9 90.6 25.3 90.2 25.9 90.2 C 26.5 90.1 26.9 90.5 27 90.9 Z M 31.2 85 C 30.6 85 30.2 84.7 30.2 84 C 30.2 83.4 30.5 82.8 31.1 82.8 C 31.7 82.8 32.3 83.2 32.3 84 C 32.3 84.7 31.8 85 31.2 85 Z M 32.4 87.9 C 32.4 88.5 32.1 88.9 31.5 88.9 C 30.7 88.9 30.3 88.5 30.3 87.7 C 30.3 87.1 30.7 86.8 31.3 86.7 C 32 86.9 32.4 87.3 32.4 87.9 Z M 24.9 85.8 C 24.8 86.4 24.5 87 23.9 87 C 23.1 87 22.7 86.5 22.7 85.8 C 22.7 85.1 23.1 84.9 23.7 84.9 C 24.4 84.9 24.7 85.2 24.9 85.8 Z M 27.4 83.7 C 28 83.7 28.4 84 28.6 84.6 C 28.7 85.4 28.2 85.8 27.6 85.8 C 27 85.8 26.6 85.5 26.6 84.8 C 26.5 84.2 26.9 83.8 27.4 83.7 Z M 23.9 93.5 C 24.3 93.5 24.8 93.8 24.8 94.4 C 24.8 95 24.4 95.6 23.6 95.6 C 23 95.6 22.6 95.1 22.6 94.6 C 22.6 93.9 23 93.5 23.9 93.5 Z"
            fill="#ffffff"
            stroke-width="1"/>
    </g>
</svg>
