<svg
    xmlns="http://www.w3.org/2000/svg"
    viewBox="0 0 180 38"
    id="vector">
    <path
        id="path"
        d="M 54.1 14.7 C 53.4 13.7 52.5 13 51.3 12.5 C 50.1 12 48.2 11.6 45.6 11.3 C 43.9 11.1 42.8 10.9 42.3 10.6 C 41.8 10.3 41.5 10 41.5 9.5 C 41.5 9.1 41.7 8.7 42.1 8.4 C 42.5 8.1 43.1 7.9 44 7.9 C 44.9 7.9 45.6 8.1 46.2 8.5 C 46.6 8.8 47 9.3 47.1 9.9 L 54.4 9.2 C 53.9 7.9 53.3 6.9 52.5 6.1 C 51.7 5.3 50.8 4.8 49.7 4.4 C 48.6 4 46.8 3.9 44.4 3.9 C 42.1 3.9 40.3 4.1 39 4.6 C 37.7 5.1 36.6 5.8 35.8 6.7 C 35 7.7 34.6 8.8 34.6 10.1 C 34.6 11.3 35 12.4 35.7 13.3 C 36.4 14.2 37.3 14.9 38.3 15.3 C 39.3 15.7 41.2 16.1 43.8 16.6 C 45.6 16.9 46.7 17.2 47.1 17.4 C 47.7 17.7 48 18.1 48 18.7 C 48 19.2 47.8 19.6 47.3 19.9 C 46.7 20.3 45.9 20.6 44.9 20.6 C 44 20.6 43.2 20.4 42.6 20 C 42 19.6 41.6 19 41.3 18.1 L 33.7 18.8 C 34.1 20.7 35.1 22.2 36.7 23.2 C 38.3 24.2 40.9 24.8 44.5 24.8 C 47.1 24.8 49.1 24.5 50.6 23.8 C 52.1 23.2 53.2 22.3 53.9 21.2 C 54.6 20.1 54.9 19 54.9 17.8 C 55.1 16.7 54.8 15.6 54.1 14.7"
        fill="#ffffff"
        stroke-width="1"/>
    <path
        id="path_1"
        d="M 70.9 10.8 C 70 9.9 68.8 9.4 67.3 9.4 C 66.3 9.4 65.4 9.6 64.6 9.9 C 63.8 10.2 63.1 10.8 62.3 11.6 L 62.3 4.2 L 56.7 4.2 L 56.7 24.4 L 62.3 24.4 L 62.3 17.4 C 62.3 16.1 62.5 15.1 62.9 14.6 C 63.3 14.1 63.9 13.8 64.6 13.8 C 65.2 13.8 65.7 14 66 14.4 C 66.3 14.8 66.5 15.4 66.5 16.3 L 66.5 24.4 L 72.1 24.4 L 72.1 15.1 C 72.2 13.2 71.8 11.8 70.9 10.8"
        fill="#ffffff"
        stroke-width="1"/>
    <path
        id="path_2"
        d="M 105.4 10.8 C 104.5 9.9 103.3 9.4 101.8 9.4 C 100.8 9.4 99.9 9.6 99.1 9.9 C 98.3 10.2 97.6 10.8 96.8 11.6 L 96.8 4.2 L 91.2 4.2 L 91.2 24.4 L 96.8 24.4 L 96.8 17.4 C 96.8 16.1 97 15.1 97.4 14.6 C 97.8 14.1 98.4 13.8 99.1 13.8 C 99.7 13.8 100.2 14 100.5 14.4 C 100.8 14.8 101 15.4 101 16.3 L 101 24.4 L 106.6 24.4 L 106.6 15.1 C 106.8 13.2 106.3 11.8 105.4 10.8"
        fill="#ffffff"
        stroke-width="1"/>
    <path
        id="path_3"
        d="M 137.1 14.9 L 142.3 9.8 L 135.4 9.8 L 131.2 14.6 L 131.2 4.2 L 125.5 4.2 L 125.5 24.4 L 131.2 24.4 L 131.2 20.6 L 133.4 18.5 L 136.3 24.4 L 142.6 24.4 Z"
        fill="#ffffff"
        stroke-width="1"/>
    <path
        id="path_4"
        d="M 159.7 22.9 C 159.6 22.5 159.6 22 159.6 21.3 L 159.6 14.8 C 159.6 14.1 159.5 13.4 159.2 12.6 C 158.9 11.8 158.5 11.3 158.1 10.8 C 157.4 10.2 156.6 9.8 155.6 9.6 C 154.6 9.4 153.2 9.3 151.5 9.3 C 150.4 9.3 149.5 9.4 148.6 9.5 C 147.7 9.7 147 9.9 146.5 10.2 C 145.8 10.6 145.2 11.1 144.9 11.6 C 144.5 12.1 144.2 12.9 144 13.8 L 149.4 14.4 C 149.6 13.8 149.9 13.3 150.3 13.1 C 150.8 12.8 151.4 12.7 152.4 12.7 C 153.1 12.7 153.6 12.8 153.9 13.1 C 154.2 13.4 154.3 13.9 154.3 14.5 C 153.6 14.8 152.9 15 152.3 15.2 C 151.7 15.4 150.3 15.7 148.2 16.1 C 146.4 16.4 145.2 17 144.6 17.7 C 144 18.4 143.6 19.3 143.6 20.4 C 143.6 21.6 144.1 22.6 145 23.4 C 145.9 24.2 147.2 24.6 149 24.6 C 150.3 24.6 151.5 24.4 152.5 24 C 153.2 23.7 154 23.2 154.7 22.5 C 154.8 22.9 154.8 23.2 154.9 23.4 C 155 23.6 155.1 23.9 155.3 24.3 L 160.6 24.3 C 160 23.8 159.8 23.3 159.7 22.9 M 154.1 18.4 C 154.1 19.1 154 19.7 153.8 20.1 C 153.6 20.5 153.2 20.9 152.7 21.2 C 152.2 21.5 151.6 21.7 151 21.7 C 150.4 21.7 149.9 21.6 149.6 21.3 C 149.3 21 149.1 20.7 149.1 20.2 C 149.1 19.8 149.3 19.5 149.6 19.2 C 149.9 18.9 150.6 18.6 151.8 18.3 C 152.6 18.1 153.4 17.8 154.2 17.6 L 154.2 18.4 Z"
        fill="#ffffff"
        stroke-width="1"/>
    <path
        id="path_5"
        d="M 170.7 9.4 C 169.9 9.4 169.2 9.6 168.7 10 C 168.2 10.4 167.6 11.1 167.1 12.1 L 167.1 9.8 L 161.8 9.8 L 161.8 24.4 L 167.4 24.4 L 167.4 19.5 C 167.4 17.2 167.7 15.6 168.3 14.7 C 168.7 14.1 169.3 13.8 170 13.8 C 170.4 13.8 170.9 13.9 171.6 14.2 L 173.3 10.2 C 172.5 9.7 171.6 9.4 170.7 9.4"
        fill="#ffffff"
        stroke-width="1"/>
    <path
        id="path_6"
        d="M 174.2 9.8 L 179.8 9.8 L 179.8 24.4 L 174.2 24.4 Z"
        fill="#ffffff"
        stroke-width="1"/>
    <path
        id="path_7"
        d="M 151.4 27.1 C 144.9 27.1 144.9 37.2 151.4 37.2 L 179.8 37.2 L 179.8 27.1 L 151.4 27.1 Z"
        fill="#010101"
        stroke-width="1"/>
    <path
        id="path_8"
        d="M 158.4 30.8 L 156.6 31.1 C 156.5 30.7 156.4 30.5 156.2 30.3 C 156 30.1 155.7 30 155.4 30 C 154.9 30 154.6 30.2 154.3 30.5 C 154 30.8 153.9 31.3 153.9 32.1 C 153.9 32.9 154 33.5 154.3 33.9 C 154.6 34.2 155 34.4 155.4 34.4 C 155.8 34.4 156 34.3 156.3 34.1 C 156.5 33.9 156.7 33.6 156.8 33.1 L 158.6 33.4 C 158.4 34.2 158 34.9 157.5 35.3 C 157 35.7 156.2 35.9 155.3 35.9 C 154.3 35.9 153.5 35.6 152.9 34.9 C 152.3 34.3 152 33.4 152 32.2 C 152 31 152.3 30.1 152.9 29.5 C 153.5 28.9 154.3 28.5 155.4 28.5 C 156.3 28.5 156.9 28.7 157.4 29.1 C 157.8 29.5 158.2 30 158.4 30.8 M 159 32.1 C 159 31.5 159.2 30.9 159.5 30.3 C 159.8 29.7 160.2 29.3 160.8 29 C 161.4 28.7 162 28.5 162.7 28.5 C 163.8 28.5 164.6 28.8 165.3 29.5 C 166 30.2 166.3 31.1 166.3 32.1 C 166.3 33.2 166 34 165.3 34.7 C 164.6 35.4 163.8 35.7 162.7 35.7 C 162.1 35.7 161.4 35.6 160.9 35.3 C 160.3 35 159.9 34.6 159.6 34 C 159.2 33.6 159 32.9 159 32.1 M 160.9 32.2 C 160.9 32.9 161.1 33.4 161.4 33.8 C 161.7 34.2 162.1 34.4 162.6 34.4 C 163.1 34.4 163.5 34.2 163.8 33.8 C 164.1 33.4 164.3 32.9 164.3 32.2 C 164.3 31.5 164.1 31 163.8 30.6 C 163.5 30.2 163.1 30 162.6 30 C 162.1 30 161.7 30.2 161.4 30.6 C 161.1 31 160.9 31.5 160.9 32.2 M 167.2 28.7 L 168.9 28.7 L 168.9 29.7 C 169.5 29 170.2 28.6 171.1 28.6 C 171.5 28.6 171.9 28.7 172.3 28.9 C 172.6 29.1 172.9 29.4 173.1 29.7 C 173.4 29.3 173.7 29.1 174.1 28.9 C 174.5 28.7 174.8 28.6 175.2 28.6 C 175.7 28.6 176.1 28.7 176.5 28.9 C 176.9 29.1 177.1 29.4 177.3 29.8 C 177.4 30.1 177.5 30.6 177.5 31.2 L 177.5 35.7 L 175.7 35.7 L 175.7 31.7 C 175.7 31 175.6 30.6 175.5 30.4 C 175.3 30.1 175.1 30 174.7 30 C 174.4 30 174.2 30.1 174 30.2 C 173.8 30.4 173.6 30.6 173.5 30.9 C 173.4 31.2 173.3 31.7 173.3 32.3 L 173.3 35.7 L 171.5 35.7 L 171.5 31.9 C 171.5 31.2 171.5 30.8 171.4 30.6 C 171.3 30.4 171.2 30.3 171.1 30.2 C 171 30.1 170.8 30.1 170.5 30.1 C 170.2 30.1 170 30.2 169.7 30.3 C 169.5 30.4 169.3 30.7 169.2 31 C 169.1 31.3 169.1 31.8 169.1 32.4 L 169.1 35.8 L 167.2 35.8 L 167.2 28.7 Z M 151.8 34.8 C 151.8 35.4 151.3 35.8 150.8 35.8 C 150.2 35.8 149.8 35.3 149.8 34.8 C 149.8 34.2 150.3 33.8 150.8 33.8 C 151.3 33.8 151.8 34.2 151.8 34.8"
        fill="#ffffff"
        stroke-width="1"/>
    <path
        id="path_9"
        d="M 87.9 12 C 86.5 10.3 84.4 9.5 81.7 9.5 C 79.3 9.5 77.4 10.2 76 11.7 C 74.6 13.1 73.9 15 73.9 17.2 C 73.9 19.6 74.7 21.5 76.4 23 C 77.8 24.2 79.5 24.8 81.8 24.8 C 84.3 24.8 86.2 24.1 87.6 22.6 C 89 21.2 89.7 19.3 89.7 17.1 C 89.6 15 89.1 13.4 87.9 12 M 83.6 20 C 83.1 20.6 82.5 20.9 81.7 20.9 C 81 20.9 80.3 20.6 79.8 20 C 79.3 19.4 79.1 18.4 79.1 17.1 C 79.1 15.8 79.4 14.9 79.9 14.2 C 80.4 13.6 81 13.3 81.8 13.3 C 82.5 13.3 83.1 13.6 83.6 14.2 C 84.1 14.8 84.3 15.8 84.3 17 C 84.3 18.4 84.1 19.4 83.6 20"
        fill="#ffffff"
        stroke-width="1"/>
    <path
        id="path_10"
        d="M 122.3 12 C 120.9 10.3 118.8 9.5 116.1 9.5 C 113.7 9.5 111.8 10.2 110.4 11.7 C 109 13.1 108.3 15 108.3 17.2 C 108.3 19.6 109.1 21.5 110.8 23 C 112.2 24.2 113.9 24.8 116.2 24.8 C 118.7 24.8 120.6 24.1 122 22.6 C 123.4 21.2 124.1 19.3 124.1 17.1 C 124 15 123.5 13.4 122.3 12 M 118 20 C 117.5 20.6 116.9 20.9 116.1 20.9 C 115.3 20.9 114.7 20.6 114.2 20 C 113.7 19.4 113.5 18.4 113.5 17.1 C 113.5 15.8 113.8 14.9 114.3 14.2 C 114.8 13.6 115.4 13.3 116.2 13.3 C 116.9 13.3 117.5 13.6 118 14.2 C 118.5 14.8 118.7 15.8 118.7 17 C 118.7 18.4 118.5 19.4 118 20"
        fill="#ffffff"
        stroke-width="1"/>
    <path
        id="path_11"
        d="M 180 5.9 C 180 4.3 178.7 3 177.1 3 C 175.5 3 174.2 4.3 174.2 5.9 C 174.2 7.5 175.5 8.8 177.1 8.8 C 178.7 8.8 180 7.5 180 5.9"
        fill="#ffffff"
        stroke-width="1"/>
    <path
        id="xmlid_272_"
        d="M 14.7 0.1 L 7.5 4.2 L 0.1 8.4 L 14.6 16.9 Z"
        fill="#26b89a"
        stroke-width="1"/>
    <path
        id="xmlid_269_"
        d="M 14.6 16.9 L 14.7 16.9 L 29.3 8.6 L 29.3 8.5 L 14.7 0 Z"
        fill="#50b96f"
        stroke-width="1"/>
    <path
        id="xmlid_266_"
        d="M 14.6 16.9 L 29.2 25.4 L 29.2 17.1 L 29.3 8.6 Z"
        fill="#2b80b9"
        stroke-width="1"/>
    <path
        id="xmlid_263_"
        d="M 0.1 8.4 L 0 25.3 L 14.7 17 L 14.7 16.9 L 0.1 8.4 Z"
        fill="#f29c1f"
        stroke-width="1"/>
    <path
        id="xmlid_260_"
        d="M 7.3 29.6 L 14.6 33.8 L 14.7 17 L 0 25.3 Z"
        fill="#efc319"
        stroke-width="1"/>
    <path
        id="xmlid_257_"
        d="M 16.1 32.9 L 22 29.6 L 29.2 25.4 L 14.7 17 L 14.6 33.8 Z"
        fill="#e64c3d"
        stroke-width="1"/>
    <g id="xmlid_254_">
        <path
            id="xmlid_255_"
            d="M 7.5 26.6 C 7.4 24.4 7.2 22.6 7 21.3 C 8.2 21.8 9.2 22.2 10.1 22.4 C 11 22.6 11.8 22.7 12.5 22.7 C 13.4 22.7 14.1 22.6 14.6 22.3 C 15.1 22 15.4 21.6 15.4 21.1 C 15.4 20.9 15.4 20.8 15.3 20.6 C 15.2 20.4 15.1 20.3 15 20.1 C 14.9 19.9 14.6 19.7 14.4 19.4 L 11.5 16.9 C 10.8 16.3 10.3 15.9 10.1 15.6 C 9.6 15.1 9.1 14.6 8.8 14.1 C 8.5 13.6 8.3 13.2 8.1 12.7 C 8 12.2 7.9 11.7 7.9 11.2 C 7.9 10.6 8 10 8.2 9.4 C 8.4 8.8 8.8 8.2 9.2 7.7 C 9.6 7.2 10.2 6.7 11 6.3 C 11.7 5.9 12.5 5.7 13.4 5.5 C 14.2 5.4 15.1 5.3 16 5.3 C 17.7 5.3 19.6 5.5 21.7 5.9 C 21.7 6.6 21.8 7.3 21.8 7.9 C 21.8 8.5 21.9 9.5 22.1 11 C 21.2 10.6 20.3 10.4 19.5 10.2 C 18.7 10.1 18 10 17.5 10 C 16.7 10 16 10.1 15.5 10.4 C 15 10.7 14.7 11.1 14.7 11.5 C 14.7 11.7 14.7 11.9 14.8 12.1 C 14.9 12.3 15 12.5 15.3 12.8 C 15.5 13.1 15.8 13.4 16.2 13.7 C 16.6 14 17.2 14.5 17.9 15.1 L 19 16 C 19.3 16.3 19.7 16.6 20.1 17 C 20.5 17.4 20.8 17.8 21.1 18.1 C 21.4 18.5 21.6 18.8 21.7 19.1 C 21.8 19.4 22 19.7 22 20 C 22.1 20.3 22.1 20.7 22.1 21 C 22.1 21.9 21.9 22.8 21.4 23.7 C 21 24.5 20.3 25.2 19.5 25.8 C 18.7 26.3 17.8 26.7 16.8 26.9 C 15.8 27.1 14.8 27.2 13.7 27.2 C 12.2 27.3 10.1 27.1 7.5 26.6 Z"
            fill="#f1f1f2"
            stroke-width="1"/>
    </g>
</svg>
