<svg width="64" height="64" viewBox="0 0 64 64" fill="none" xmlns="http://www.w3.org/2000/svg">
<g filter="url(#filter0_d)">
<rect x="8" y="4" width="48" height="47.3239" rx="5" fill="#EAF0F7"/>
</g>
<path d="M24.9198 41.8001C26.4198 40.9601 27.6198 39.8201 28.5198 38.4401C28.0398 38.7401 27.5598 39.1001 27.0198 39.4001C26.0598 40.0001 25.0398 40.4801 23.8398 40.6601C23.3598 40.7201 22.9998 40.7201 22.6398 40.4201C21.4398 39.4001 20.2398 38.3801 19.0998 37.3001C20.4798 37.0001 21.7999 36.8201 23.0599 36.1001C22.4599 36.1601 21.9198 36.2201 21.4398 36.1601C20.4798 36.1601 19.4598 36.1001 18.4998 36.0401C18.3198 36.0401 18.0799 35.9201 17.9599 35.8001C17.1799 34.9601 16.5798 34.0601 16.3398 32.9201C16.3398 32.8601 16.3398 32.8001 16.3398 32.6801C18.7998 33.1001 21.3198 33.3401 23.7798 33.2201C26.2398 33.1001 28.6998 32.9201 30.9798 31.8401C30.8598 31.1201 31.0998 30.4601 31.7598 30.1601C31.9998 30.0401 32.3598 30.0401 32.5998 30.1601C33.5598 30.7601 34.5198 31.4801 35.4198 32.1401C35.7198 32.3201 35.7798 32.6201 35.5998 32.9201C35.3598 33.3401 35.1798 33.8801 34.5198 34.0601C34.5798 34.7201 34.6998 35.3201 34.7598 35.9801C34.9998 38.3201 35.1198 40.6601 34.6998 43.0001C34.6998 43.0601 34.6998 43.1201 34.6398 43.1801C34.2198 44.7401 33.8598 45.0401 32.1798 44.8001C31.0398 44.6801 31.0398 44.6801 31.4598 43.6601C31.9398 42.3401 32.2998 40.9601 32.2998 39.5201C32.2998 39.4001 32.2998 39.2801 32.2998 39.0401C32.2398 39.2201 32.1798 39.2801 32.1798 39.2801C31.6998 40.8401 31.0398 42.4001 30.1398 43.8401C29.9598 44.0801 29.8398 44.1401 29.4798 44.0801C27.9198 43.6001 26.4198 42.8801 25.0998 41.9801C25.0398 41.9201 24.9798 41.8601 24.9198 41.8001Z" fill="#E73458"/>
<path d="M35.9599 30.46C35.2399 29.98 34.5799 29.56 33.9199 29.08C34.7599 27.94 35.6599 26.86 36.4999 25.78C39.1399 22.36 41.7799 18.94 44.4799 15.52C44.5999 15.34 44.7199 15.22 44.8999 15.04C45.1999 14.8 45.6199 14.74 45.9799 14.92C46.3399 15.16 46.5199 15.4 46.3999 15.88C46.3399 16.06 46.2799 16.24 46.1599 16.42C42.8599 21.04 39.4999 25.66 36.1399 30.22C36.0799 30.34 36.0199 30.4 35.9599 30.46Z" fill="#E73458"/>
<path d="M21.86 29.5601C21.5 28.1801 20.66 27.5201 19.46 27.2801C19.94 27.0401 20.48 26.8001 21.02 26.4401C21.56 26.0801 21.74 25.4801 21.92 24.8201C22.28 26.0801 23.12 26.9201 24.44 27.1601C23.9 27.4001 23.36 27.6401 22.88 28.0001C22.28 28.3601 21.98 28.9001 21.86 29.5601Z" fill="#E73458"/>
<path d="M28.2202 20.38C26.9602 20.68 26.1202 21.22 25.8202 22.42C25.5202 21.28 24.8602 20.68 23.7202 20.44C24.8602 20.14 25.5802 19.48 25.8202 18.28C26.1802 19.42 26.9002 20.14 28.2202 20.38Z" fill="#E73458"/>
<path d="M29.0601 24.64C29.9601 24.4 30.4401 23.98 30.6201 23.08C30.8601 23.92 31.4001 24.4 32.3001 24.58C31.4601 24.82 30.8601 25.24 30.6201 26.02C30.3801 25.3 29.9001 24.88 29.0601 24.64Z" fill="#E73458"/>
<path d="M40.1599 15.4L33.9199 27.46C33.9799 27.46 33.9799 27.46 34.0399 27.52C34.2799 27.58 34.5799 27.7 34.7599 27.82C35.0599 27.94 35.2999 28.12 35.5399 28.36L41.7799 16.24C42.0199 15.82 41.8399 15.22 41.3599 15.04C40.9399 14.8 40.3999 14.98 40.1599 15.4Z" fill="#E73458"/>
<path d="M19.58 37.84C20.6 38.74 21.8 39.52 23.18 40.18C25.58 41.26 27.68 41.56 27.74 41.62H27.8C30.32 41.56 32.24 40.72 33.62 39.16C35.36 37.12 36.02 34 35.9 31.36C35.84 30.58 35.6 29.8 35.0601 29.26C35.0001 29.2 35 29.2 34.94 29.14C34.76 28.96 34.52 28.84 34.34 28.72C34.16 28.6 33.92 28.54 33.74 28.48C33.68 28.48 33.56 28.42 33.5 28.42C33.38 28.42 33.26 28.36 33.14 28.36C32.24 28.36 31.4 28.9 30.8 29.5C30.14 30.1 29.48 30.7 28.7 31.24C27.86 31.78 26.96 32.08 26.0601 32.32C24.86 32.68 23.6 32.86 22.34 33.04C21.2 33.16 20.12 33.22 18.98 33.22C18.56 33.22 18.08 33.22 17.66 33.16H17.6C17.6 33.16 17.6 33.16 17.54 33.16C17.36 33.16 17.18 33.22 17.06 33.4C16.94 33.58 16.88 33.76 16.94 34C17.42 35.38 18.32 36.7 19.58 37.84ZM18.74 34.36C18.8 34.36 18.86 34.36 18.92 34.36C19.82 34.36 21.08 34.3 22.52 34.18C25.52 33.82 27.98 33.1 29.84 32.02C29.9 31.96 29.96 31.96 30.02 31.96C30.08 31.96 30.14 31.96 30.2 32.02C31.28 32.62 32.9601 33.52 34.1601 33.94C34.2801 34 34.4 34.12 34.4 34.3C34.28 35.56 33.86 37.12 32.78 38.38C31.7 39.64 30.08 40.3 27.98 40.42H27.92C27.68 40.36 27.2 40.3 26.48 40.12C26.66 40.06 26.9 39.94 27.08 39.82C27.26 39.7 27.44 39.58 27.62 39.46C28.22 39.1 28.76 38.68 29.18 38.32C29.3 38.26 29.18 38.08 29.0601 38.14C28.1 38.56 26.9 38.8 25.82 38.98C25.46 39.04 25.16 39.1 24.86 39.1C24.5 39.16 24.2 39.16 23.9 39.22C23.84 39.16 23.78 39.16 23.72 39.1C23.12 38.8 22.58 38.5 22.04 38.2C22.28 38.2 22.52 38.14 22.76 38.08C23 38.02 23.18 37.96 23.42 37.9C24.08 37.72 24.68 37.48 25.1 37.36C25.16 37.3 25.16 37.24 25.04 37.24C24.26 37.3 23.24 37.3 22.34 37.3C22.04 37.3 21.74 37.3 21.5 37.3C21.2 37.3 20.9 37.3 20.72 37.3C20.6 37.24 20.54 37.12 20.42 37.06C20.3 36.94 20.18 36.82 20.06 36.7C20.24 36.7 20.42 36.64 20.6 36.64C20.78 36.58 20.96 36.58 21.14 36.52C21.86 36.34 22.58 36.1 23 35.92C23.06 35.86 23.06 35.8 22.94 35.8C22.22 35.86 21.26 35.86 20.42 35.86C20.18 35.86 20 35.86 19.82 35.86C19.58 35.86 19.4 35.86 19.22 35.86C18.98 35.5 18.74 35.2 18.56 34.84C18.5 34.48 18.62 34.36 18.74 34.36Z" fill="#E73458"/>
<path d="M40.0997 37.48C40.0997 38.26 39.4397 38.92 38.6597 38.92C37.8797 38.92 37.2197 38.26 37.2197 37.48C37.2197 36.7 37.8797 36.04 38.6597 36.04C39.4997 36.04 40.0997 36.7 40.0997 37.48Z" fill="#E73458"/>
<path d="M36.2598 40.84C36.2598 41.26 35.8998 41.56 35.5398 41.56C35.1198 41.56 34.8198 41.2 34.8198 40.84C34.8198 40.42 35.1798 40.12 35.5398 40.12C35.8998 40.06 36.2598 40.42 36.2598 40.84Z" fill="#E73458"/>
<path d="M40.2803 40.6599C40.2803 41.08 39.9203 41.3799 39.5603 41.3799C39.1403 41.3799 38.8403 41.02 38.8403 40.6599C38.8403 40.2999 39.2003 39.9399 39.5603 39.9399C39.9203 39.9399 40.2803 40.2399 40.2803 40.6599Z" fill="#E73458"/>
<defs>
<filter id="filter0_d" x="0" y="0" width="64" height="63.3239" filterUnits="userSpaceOnUse" color-interpolation-filters="sRGB">
<feFlood flood-opacity="0" result="BackgroundImageFix"/>
<feColorMatrix in="SourceAlpha" type="matrix" values="0 0 0 0 0 0 0 0 0 0 0 0 0 0 0 0 0 0 127 0"/>
<feOffset dy="4"/>
<feGaussianBlur stdDeviation="4"/>
<feColorMatrix type="matrix" values="0 0 0 0 0.553583 0 0 0 0 0.61529 0 0 0 0 0.65 0 0 0 0.2 0"/>
<feBlend mode="normal" in2="BackgroundImageFix" result="effect1_dropShadow"/>
<feBlend mode="normal" in="SourceGraphic" in2="effect1_dropShadow" result="shape"/>
</filter>
</defs>
</svg>
