<svg width="26" height="26" viewBox="0 0 26 26" fill="none" xmlns="http://www.w3.org/2000/svg">
<path d="M12.9999 24.3333C19.4432 24.3333 24.6666 19.11 24.6666 12.6667C24.6666 6.22334 19.4432 1 12.9999 1C6.5566 1 1.33325 6.22334 1.33325 12.6667C1.33325 19.11 6.5566 24.3333 12.9999 24.3333Z" stroke="#7E8289" stroke-width="2" stroke-linecap="round" stroke-linejoin="round"/>
<path d="M9.60498 9.16665C9.87927 8.38693 10.4207 7.72944 11.1333 7.31064C11.8459 6.89184 12.6837 6.73874 13.4984 6.87848C14.313 7.01822 15.0519 7.44176 15.5842 8.0741C16.1165 8.70644 16.4079 9.50676 16.4066 10.3333C16.4066 12.6666 12.9066 13.8333 12.9066 13.8333" stroke="#7E8289" stroke-width="2" stroke-linecap="round" stroke-linejoin="round"/>
<path d="M13 18.5H13.0117" stroke="#7E8289" stroke-width="2" stroke-linecap="round" stroke-linejoin="round"/>
</svg>
