<svg
    xmlns="http://www.w3.org/2000/svg"
    viewBox="0 0 24 24"
    id="vector">
    <path
        id="path"
        d="M 12 2 C 6.48 2 2 6.48 2 12 C 2 17.52 6.48 22 12 22 C 17.52 22 22 17.52 22 12 C 22 6.48 17.52 2 12 2 Z M 10 17 L 5 12 L 6.41 10.59 L 10 14.17 L 17.59 6.58 L 19 8 L 10 17 Z"
        fill="#9fc104"/>
</svg>
